{
  "generatedBy": "http://beta.json-generator.com/NurfI-a",
  "_links": {
    "last": "http://bifrost.staging.clubjudge.com:80/v1/albums?perPage=1&page=1",
    "next": null,
    "self": "http://bifrost.staging.clubjudge.com:80/v1/albums?perPage=1&page=1",
    "previous": null,
    "first": "http://bifrost.staging.clubjudge.com:80/v1/albums?perPage=1&page=1"
  },
  "_pagination": {
    "totalItems": 25,
    "totalPages": 2,
    "perPage": 1,
    "currentPage": 1
  },
  "albums": [
    {
      "photosCount": 2260,
      "cover": {
        "credits": "Cross Pena",
        "tags": [
          "amet",
          "culpa",
          "irure"
        ],
        "formats": {
          "square_250": "http://images.clubjudge.com.s3.amazonaws.com/tmp/photo-square-1.jpg",
          "rectangle_650x280": "http://images.clubjudge.com.s3.amazonaws.com/tmp/photo-cover-1.jpg",
          "scaled_photo": "http://images.clubjudge.com.s3.amazonaws.com/tmp/photo-pic-1.jpg"
        },
        "date": "2014-09-07T20:34:45",
        "guid": "b4e2f13c-bb37-4803-be82-a7c972fbe2de"
      },
      "date": "2014-11-16",
      "name": "Boink",
      "id": 1
    },
    {
      "photosCount": 5609,
      "cover": {
        "credits": "Wolf Walker",
        "tags": [
          "est",
          "mollit",
          "dolor"
        ],
        "formats": {
          "square_250": "http://images.clubjudge.com.s3.amazonaws.com/tmp/photo-square-2.jpg",
          "rectangle_650x280": "http://images.clubjudge.com.s3.amazonaws.com/tmp/photo-cover-2.jpg",
          "scaled_photo": "http://images.clubjudge.com.s3.amazonaws.com/tmp/photo-pic-2.jpg"
        },
        "date": "2014-06-28T21:53:26",
        "guid": "37afed1e-cd86-4a9c-82ee-406d0d83160c"
      },
      "date": "2014-12-04",
      "name": "Recritube",
      "id": 2
    },
    {
      "photosCount": 2270,
      "cover": {
        "credits": "Jeannine Cunningham",
        "tags": [
          "ea",
          "pariatur",
          "reprehenderit"
        ],
        "formats": {
          "square_250": "http://images.clubjudge.com.s3.amazonaws.com/tmp/photo-square-3.jpg",
          "rectangle_650x280": "http://images.clubjudge.com.s3.amazonaws.com/tmp/photo-cover-3.jpg",
          "scaled_photo": "http://images.clubjudge.com.s3.amazonaws.com/tmp/photo-pic-3.jpg"
        },
        "date": "2014-01-11T12:58:47",
        "guid": "c96e0f61-5e45-4cc5-afb3-74d33ee71eea"
      },
      "date": "2014-03-26",
      "name": "Oronoko",
      "id": 3
    },
    {
      "photosCount": 8069,
      "cover": {
        "credits": "Burton Meadows",
        "tags": [
          "non",
          "consequat",
          "dolor"
        ],
        "formats": {
          "square_250": "http://images.clubjudge.com.s3.amazonaws.com/tmp/photo-square-4.jpg",
          "rectangle_650x280": "http://images.clubjudge.com.s3.amazonaws.com/tmp/photo-cover-4.jpg",
          "scaled_photo": "http://images.clubjudge.com.s3.amazonaws.com/tmp/photo-pic-4.jpg"
        },
        "date": "2014-03-28T19:12:07",
        "guid": "1dd7969c-38c5-4442-8f57-7f510b90ab66"
      },
      "date": "2014-06-30",
      "name": "Songlines",
      "id": 4
    },
    {
      "photosCount": 7769,
      "cover": {
        "credits": "Alisa Cobb",
        "tags": [
          "id",
          "exercitation",
          "id"
        ],
        "formats": {
          "square_250": "http://images.clubjudge.com.s3.amazonaws.com/tmp/photo-square-5.jpg",
          "rectangle_650x280": "http://images.clubjudge.com.s3.amazonaws.com/tmp/photo-cover-5.jpg",
          "scaled_photo": "http://images.clubjudge.com.s3.amazonaws.com/tmp/photo-pic-5.jpg"
        },
        "date": "2014-07-01T17:17:14",
        "guid": "9be87771-6230-492c-bf52-f1e7f0ca393d"
      },
      "date": "2014-02-13",
      "name": "Splinx",
      "id": 5
    },
    {
      "photosCount": 4906,
      "cover": {
        "credits": "Elaine Spencer",
        "tags": [
          "adipisicing",
          "officia",
          "nulla"
        ],
        "formats": {
          "square_250": "http://images.clubjudge.com.s3.amazonaws.com/tmp/photo-square-6.jpg",
          "rectangle_650x280": "http://images.clubjudge.com.s3.amazonaws.com/tmp/photo-cover-6.jpg",
          "scaled_photo": "http://images.clubjudge.com.s3.amazonaws.com/tmp/photo-pic-6.jpg"
        },
        "date": "2014-01-30T22:25:03",
        "guid": "905bd93c-6683-451b-a9bb-7a43242d02de"
      },
      "date": "2014-08-10",
      "name": "Valpreal",
      "id": 6
    },
    {
      "photosCount": 6042,
      "cover": {
        "credits": "Corine Buckley",
        "tags": [
          "deserunt",
          "occaecat",
          "Lorem"
        ],
        "formats": {
          "square_250": "http://images.clubjudge.com.s3.amazonaws.com/tmp/photo-square-7.jpg",
          "rectangle_650x280": "http://images.clubjudge.com.s3.amazonaws.com/tmp/photo-cover-7.jpg",
          "scaled_photo": "http://images.clubjudge.com.s3.amazonaws.com/tmp/photo-pic-7.jpg"
        },
        "date": "2014-10-24T15:41:52",
        "guid": "e95e33fd-766f-4c19-8ee6-b719bd326890"
      },
      "date": "2014-05-28",
      "name": "Qnekt",
      "id": 7
    },
    {
      "photosCount": 820,
      "cover": {
        "credits": "Hatfield Mcintyre",
        "tags": [
          "tempor",
          "deserunt",
          "est"
        ],
        "formats": {
          "square_250": "http://images.clubjudge.com.s3.amazonaws.com/tmp/photo-square-8.jpg",
          "rectangle_650x280": "http://images.clubjudge.com.s3.amazonaws.com/tmp/photo-cover-8.jpg",
          "scaled_photo": "http://images.clubjudge.com.s3.amazonaws.com/tmp/photo-pic-8.jpg"
        },
        "date": "2014-01-25T21:45:29",
        "guid": "9dd10b54-b628-4dc3-b137-6d497c378d78"
      },
      "date": "2014-10-16",
      "name": "Asimiline",
      "id": 8
    },
    {
      "photosCount": 8057,
      "cover": {
        "credits": "Thompson Dodson",
        "tags": [
          "cillum",
          "reprehenderit",
          "eu"
        ],
        "formats": {
          "square_250": "http://images.clubjudge.com.s3.amazonaws.com/tmp/photo-square-9.jpg",
          "rectangle_650x280": "http://images.clubjudge.com.s3.amazonaws.com/tmp/photo-cover-9.jpg",
          "scaled_photo": "http://images.clubjudge.com.s3.amazonaws.com/tmp/photo-pic-9.jpg"
        },
        "date": "2014-09-17T16:05:30",
        "guid": "a0fdb6cc-771e-4c1f-adb5-aec73c6012f4"
      },
      "date": "2014-08-04",
      "name": "Billmed",
      "id": 9
    },
    {
      "photosCount": 4227,
      "cover": {
        "credits": "Lara Holden",
        "tags": [
          "est",
          "aliquip",
          "dolore"
        ],
        "formats": {
          "square_250": "http://images.clubjudge.com.s3.amazonaws.com/tmp/photo-square-10.jpg",
          "rectangle_650x280": "http://images.clubjudge.com.s3.amazonaws.com/tmp/photo-cover-10.jpg",
          "scaled_photo": "http://images.clubjudge.com.s3.amazonaws.com/tmp/photo-pic-10.jpg"
        },
        "date": "2014-01-01T04:12:55",
        "guid": "fa6648c5-9da9-441c-a025-294921157e54"
      },
      "date": "2014-04-06",
      "name": "Glasstep",
      "id": 10
    },
    {
      "photosCount": 1216,
      "cover": {
        "credits": "Minerva Walters",
        "tags": [
          "eu",
          "veniam",
          "ea"
        ],
        "formats": {
          "square_250": "http://images.clubjudge.com.s3.amazonaws.com/tmp/photo-square-11.jpg",
          "rectangle_650x280": "http://images.clubjudge.com.s3.amazonaws.com/tmp/photo-cover-11.jpg",
          "scaled_photo": "http://images.clubjudge.com.s3.amazonaws.com/tmp/photo-pic-11.jpg"
        },
        "date": "2014-08-04T10:53:25",
        "guid": "18fe273e-a25e-42b6-bba2-a1f9177acbe3"
      },
      "date": "2014-09-05",
      "name": "Roughies",
      "id": 11
    },
    {
      "photosCount": 7041,
      "cover": {
        "credits": "Bernard Reese",
        "tags": [
          "aliqua",
          "incididunt",
          "labore"
        ],
        "formats": {
          "square_250": "http://images.clubjudge.com.s3.amazonaws.com/tmp/photo-square-12.jpg",
          "rectangle_650x280": "http://images.clubjudge.com.s3.amazonaws.com/tmp/photo-cover-12.jpg",
          "scaled_photo": "http://images.clubjudge.com.s3.amazonaws.com/tmp/photo-pic-12.jpg"
        },
        "date": "2014-11-17T02:28:28",
        "guid": "5506a0c4-d926-4461-a241-2430bd8f00cc"
      },
      "date": "2014-06-11",
      "name": "Enaut",
      "id": 12
    },
    {
      "photosCount": 653,
      "cover": {
        "credits": "Rosemary Doyle",
        "tags": [
          "incididunt",
          "et",
          "do"
        ],
        "formats": {
          "square_250": "http://images.clubjudge.com.s3.amazonaws.com/tmp/photo-square-13.jpg",
          "rectangle_650x280": "http://images.clubjudge.com.s3.amazonaws.com/tmp/photo-cover-13.jpg",
          "scaled_photo": "http://images.clubjudge.com.s3.amazonaws.com/tmp/photo-pic-13.jpg"
        },
        "date": "2014-01-03T12:19:54",
        "guid": "ea16ba37-9f10-44fa-a1fd-57bc2d0f00f8"
      },
      "date": "2014-11-16",
      "name": "Dognosis",
      "id": 13
    },
    {
      "photosCount": 2349,
      "cover": {
        "credits": "Melody Knowles",
        "tags": [
          "laboris",
          "mollit",
          "aliqua"
        ],
        "formats": {
          "square_250": "http://images.clubjudge.com.s3.amazonaws.com/tmp/photo-square-14.jpg",
          "rectangle_650x280": "http://images.clubjudge.com.s3.amazonaws.com/tmp/photo-cover-14.jpg",
          "scaled_photo": "http://images.clubjudge.com.s3.amazonaws.com/tmp/photo-pic-14.jpg"
        },
        "date": "2014-11-10T02:46:34",
        "guid": "d0410321-28e0-4f9f-9e27-a1f14c02e040"
      },
      "date": "2014-11-08",
      "name": "Eyeris",
      "id": 14
    },
    {
      "photosCount": 412,
      "cover": {
        "credits": "Carson Keller",
        "tags": [
          "amet",
          "consectetur",
          "sint"
        ],
        "formats": {
          "square_250": "http://images.clubjudge.com.s3.amazonaws.com/tmp/photo-square-15.jpg",
          "rectangle_650x280": "http://images.clubjudge.com.s3.amazonaws.com/tmp/photo-cover-15.jpg",
          "scaled_photo": "http://images.clubjudge.com.s3.amazonaws.com/tmp/photo-pic-15.jpg"
        },
        "date": "2014-01-24T19:05:19",
        "guid": "82961f34-5bb5-4d4e-9901-4f94e8f07ec7"
      },
      "date": "2014-03-12",
      "name": "Musanpoly",
      "id": 15
    },
    {
      "photosCount": 7858,
      "cover": {
        "credits": "Felecia Kidd",
        "tags": [
          "labore",
          "nisi",
          "id"
        ],
        "formats": {
          "square_250": "http://images.clubjudge.com.s3.amazonaws.com/tmp/photo-square-16.jpg",
          "rectangle_650x280": "http://images.clubjudge.com.s3.amazonaws.com/tmp/photo-cover-16.jpg",
          "scaled_photo": "http://images.clubjudge.com.s3.amazonaws.com/tmp/photo-pic-16.jpg"
        },
        "date": "2014-08-21T19:29:52",
        "guid": "7d8c1faf-aa2c-444f-9e9c-bbf773512f9b"
      },
      "date": "2014-01-20",
      "name": "Melbacor",
      "id": 16
    },
    {
      "photosCount": 965,
      "cover": {
        "credits": "Rodgers Olson",
        "tags": [
          "sit",
          "ad",
          "sint"
        ],
        "formats": {
          "square_250": "http://images.clubjudge.com.s3.amazonaws.com/tmp/photo-square-17.jpg",
          "rectangle_650x280": "http://images.clubjudge.com.s3.amazonaws.com/tmp/photo-cover-17.jpg",
          "scaled_photo": "http://images.clubjudge.com.s3.amazonaws.com/tmp/photo-pic-17.jpg"
        },
        "date": "2014-05-23T20:02:50",
        "guid": "5dfdfc0f-de11-4906-a8dc-3689ceb477cf"
      },
      "date": "2014-06-17",
      "name": "Norsup",
      "id": 17
    },
    {
      "photosCount": 2587,
      "cover": {
        "credits": "Allen Hawkins",
        "tags": [
          "duis",
          "et",
          "ad"
        ],
        "formats": {
          "square_250": "http://images.clubjudge.com.s3.amazonaws.com/tmp/photo-square-18.jpg",
          "rectangle_650x280": "http://images.clubjudge.com.s3.amazonaws.com/tmp/photo-cover-18.jpg",
          "scaled_photo": "http://images.clubjudge.com.s3.amazonaws.com/tmp/photo-pic-18.jpg"
        },
        "date": "2014-05-15T09:55:39",
        "guid": "6b88256a-fed1-401d-91fb-1a2ed5d53252"
      },
      "date": "2014-11-28",
      "name": "Strezzo",
      "id": 18
    },
    {
      "photosCount": 1110,
      "cover": {
        "credits": "Mcmillan Avery",
        "tags": [
          "enim",
          "veniam",
          "incididunt"
        ],
        "formats": {
          "square_250": "http://images.clubjudge.com.s3.amazonaws.com/tmp/photo-square-19.jpg",
          "rectangle_650x280": "http://images.clubjudge.com.s3.amazonaws.com/tmp/photo-cover-19.jpg",
          "scaled_photo": "http://images.clubjudge.com.s3.amazonaws.com/tmp/photo-pic-19.jpg"
        },
        "date": "2014-03-28T18:28:29",
        "guid": "97f9edd3-0dfe-4e1b-8bc8-77f044ce0698"
      },
      "date": "2014-02-06",
      "name": "Zanilla",
      "id": 19
    },
    {
      "photosCount": 2079,
      "cover": {
        "credits": "Toni Wiley",
        "tags": [
          "cupidatat",
          "ad",
          "esse"
        ],
        "formats": {
          "square_250": "http://images.clubjudge.com.s3.amazonaws.com/tmp/photo-square-20.jpg",
          "rectangle_650x280": "http://images.clubjudge.com.s3.amazonaws.com/tmp/photo-cover-20.jpg",
          "scaled_photo": "http://images.clubjudge.com.s3.amazonaws.com/tmp/photo-pic-20.jpg"
        },
        "date": "2014-01-18T00:01:52",
        "guid": "2db56292-dcbb-47ee-85a1-cb4205b018f2"
      },
      "date": "2014-06-03",
      "name": "Anixang",
      "id": 20
    }
  ]
}
