{
  "generatedBy": "http://beta.json-generator.com/Ds9ew4o",
  "_links": {
    "last": "http://bifrost.staging.clubjudge.com:80/v1/albums/1/photos?perPage=1&page=1",
    "next": null,
    "self": "http://bifrost.staging.clubjudge.com:80/v1/albums/1/photos?perPage=1&page=1",
    "previous": null,
    "first": "http://bifrost.staging.clubjudge.com:80/v1/albums/1/photos?perPage=1&page=1"
  },
  "_pagination": {
    "totalItems": 100,
    "totalPages": 5,
    "perPage": 1,
    "currentPage": 1
  },
  "photos": [
    {
      "credits": "Marlene Romero",
      "tags": [
        "eu",
        "nulla",
        "tempor"
      ],
      "formats": {
        "square_250": "http://images.clubjudge.com.s3.amazonaws.com/tmp/photo-square-1.jpg",
        "rectangle_650x280": "http://images.clubjudge.com.s3.amazonaws.com/tmp/photo-cover-1.jpg",
        "scaled_photo": "http://images.clubjudge.com.s3.amazonaws.com/tmp/photo-pic-1.jpg"
      },
      "date": "2014-01-18T04:35:02",
      "guid": "9b5ce295-69ef-4881-9366-3d3bc22bbd5b"
    },
    {
      "credits": "Nita Hanson",
      "tags": [
        "incididunt",
        "nostrud",
        "dolor"
      ],
      "formats": {
        "square_250": "http://images.clubjudge.com.s3.amazonaws.com/tmp/photo-square-2.jpg",
        "rectangle_650x280": "http://images.clubjudge.com.s3.amazonaws.com/tmp/photo-cover-2.jpg",
        "scaled_photo": "http://images.clubjudge.com.s3.amazonaws.com/tmp/photo-pic-2.jpg"
      },
      "date": "2014-01-26T09:43:56",
      "guid": "914b819c-6aef-4b73-98c8-e23ac4b3c11f"
    },
    {
      "credits": "Chan English",
      "tags": [
        "elit",
        "irure",
        "sint"
      ],
      "formats": {
        "square_250": "http://images.clubjudge.com.s3.amazonaws.com/tmp/photo-square-3.jpg",
        "rectangle_650x280": "http://images.clubjudge.com.s3.amazonaws.com/tmp/photo-cover-3.jpg",
        "scaled_photo": "http://images.clubjudge.com.s3.amazonaws.com/tmp/photo-pic-3.jpg"
      },
      "date": "2014-10-18T02:07:57",
      "guid": "9a40ff64-0152-44a7-b571-cfd016847aa6"
    },
    {
      "credits": "Michael Lang",
      "tags": [
        "voluptate",
        "ipsum",
        "consequat"
      ],
      "formats": {
        "square_250": "http://images.clubjudge.com.s3.amazonaws.com/tmp/photo-square-4.jpg",
        "rectangle_650x280": "http://images.clubjudge.com.s3.amazonaws.com/tmp/photo-cover-4.jpg",
        "scaled_photo": "http://images.clubjudge.com.s3.amazonaws.com/tmp/photo-pic-4.jpg"
      },
      "date": "2014-07-02T01:12:01",
      "guid": "722cb11a-bd9a-4b9f-a1e2-ed80b58b3331"
    },
    {
      "credits": "Willie Jensen",
      "tags": [
        "ipsum",
        "excepteur",
        "dolor"
      ],
      "formats": {
        "square_250": "http://images.clubjudge.com.s3.amazonaws.com/tmp/photo-square-5.jpg",
        "rectangle_650x280": "http://images.clubjudge.com.s3.amazonaws.com/tmp/photo-cover-5.jpg",
        "scaled_photo": "http://images.clubjudge.com.s3.amazonaws.com/tmp/photo-pic-5.jpg"
      },
      "date": "2014-10-10T21:34:23",
      "guid": "d746ac00-ec1e-4e0b-8c0f-7d315d44d48f"
    },
    {
      "credits": "Boyd Moody",
      "tags": [
        "aliqua",
        "commodo",
        "deserunt"
      ],
      "formats": {
        "square_250": "http://images.clubjudge.com.s3.amazonaws.com/tmp/photo-square-6.jpg",
        "rectangle_650x280": "http://images.clubjudge.com.s3.amazonaws.com/tmp/photo-cover-6.jpg",
        "scaled_photo": "http://images.clubjudge.com.s3.amazonaws.com/tmp/photo-pic-6.jpg"
      },
      "date": "2014-09-11T22:28:11",
      "guid": "1be7b1d8-fa38-4203-965a-db6a72842eef"
    },
    {
      "credits": "Bishop Kim",
      "tags": [
        "nisi",
        "esse",
        "voluptate"
      ],
      "formats": {
        "square_250": "http://images.clubjudge.com.s3.amazonaws.com/tmp/photo-square-7.jpg",
        "rectangle_650x280": "http://images.clubjudge.com.s3.amazonaws.com/tmp/photo-cover-7.jpg",
        "scaled_photo": "http://images.clubjudge.com.s3.amazonaws.com/tmp/photo-pic-7.jpg"
      },
      "date": "2014-09-18T23:59:43",
      "guid": "dfab9fcf-b084-4b9b-b13a-c7611dfb92c2"
    },
    {
      "credits": "Oconnor Jefferson",
      "tags": [
        "consequat",
        "aute",
        "enim"
      ],
      "formats": {
        "square_250": "http://images.clubjudge.com.s3.amazonaws.com/tmp/photo-square-8.jpg",
        "rectangle_650x280": "http://images.clubjudge.com.s3.amazonaws.com/tmp/photo-cover-8.jpg",
        "scaled_photo": "http://images.clubjudge.com.s3.amazonaws.com/tmp/photo-pic-8.jpg"
      },
      "date": "2014-06-11T03:02:24",
      "guid": "ca701063-787f-4e48-a85f-184a38f42376"
    },
    {
      "credits": "Cohen Benson",
      "tags": [
        "pariatur",
        "aute",
        "sint"
      ],
      "formats": {
        "square_250": "http://images.clubjudge.com.s3.amazonaws.com/tmp/photo-square-9.jpg",
        "rectangle_650x280": "http://images.clubjudge.com.s3.amazonaws.com/tmp/photo-cover-9.jpg",
        "scaled_photo": "http://images.clubjudge.com.s3.amazonaws.com/tmp/photo-pic-9.jpg"
      },
      "date": "2014-06-28T04:19:37",
      "guid": "04ff214b-aea1-47ac-be31-7b0c6ea5a33f"
    },
    {
      "credits": "Jackie Blankenship",
      "tags": [
        "cupidatat",
        "fugiat",
        "culpa"
      ],
      "formats": {
        "square_250": "http://images.clubjudge.com.s3.amazonaws.com/tmp/photo-square-10.jpg",
        "rectangle_650x280": "http://images.clubjudge.com.s3.amazonaws.com/tmp/photo-cover-10.jpg",
        "scaled_photo": "http://images.clubjudge.com.s3.amazonaws.com/tmp/photo-pic-10.jpg"
      },
      "date": "2014-04-19T11:01:04",
      "guid": "6a9365e1-1d4b-46e2-b4e7-65418ca1cc78"
    },
    {
      "credits": "Imogene Cantu",
      "tags": [
        "anim",
        "laborum",
        "incididunt"
      ],
      "formats": {
        "square_250": "http://images.clubjudge.com.s3.amazonaws.com/tmp/photo-square-11.jpg",
        "rectangle_650x280": "http://images.clubjudge.com.s3.amazonaws.com/tmp/photo-cover-11.jpg",
        "scaled_photo": "http://images.clubjudge.com.s3.amazonaws.com/tmp/photo-pic-11.jpg"
      },
      "date": "2014-02-12T18:08:07",
      "guid": "d9ee357e-30f4-404f-b117-c9ac88c833a8"
    },
    {
      "credits": "Watts Ball",
      "tags": [
        "enim",
        "proident",
        "excepteur"
      ],
      "formats": {
        "square_250": "http://images.clubjudge.com.s3.amazonaws.com/tmp/photo-square-12.jpg",
        "rectangle_650x280": "http://images.clubjudge.com.s3.amazonaws.com/tmp/photo-cover-12.jpg",
        "scaled_photo": "http://images.clubjudge.com.s3.amazonaws.com/tmp/photo-pic-12.jpg"
      },
      "date": "2014-04-05T16:34:48",
      "guid": "2730e341-ca73-40a2-870a-e9b339ba5518"
    },
    {
      "credits": "Lola Gomez",
      "tags": [
        "esse",
        "esse",
        "mollit"
      ],
      "formats": {
        "square_250": "http://images.clubjudge.com.s3.amazonaws.com/tmp/photo-square-13.jpg",
        "rectangle_650x280": "http://images.clubjudge.com.s3.amazonaws.com/tmp/photo-cover-13.jpg",
        "scaled_photo": "http://images.clubjudge.com.s3.amazonaws.com/tmp/photo-pic-13.jpg"
      },
      "date": "2014-08-02T15:52:25",
      "guid": "d4195666-aecc-4a2d-837e-80d6eec8e1aa"
    },
    {
      "credits": "Church Barlow",
      "tags": [
        "occaecat",
        "proident",
        "cupidatat"
      ],
      "formats": {
        "square_250": "http://images.clubjudge.com.s3.amazonaws.com/tmp/photo-square-14.jpg",
        "rectangle_650x280": "http://images.clubjudge.com.s3.amazonaws.com/tmp/photo-cover-14.jpg",
        "scaled_photo": "http://images.clubjudge.com.s3.amazonaws.com/tmp/photo-pic-14.jpg"
      },
      "date": "2014-09-16T23:53:29",
      "guid": "dcda6992-729f-4350-85f1-44e9c4aee331"
    },
    {
      "credits": "Mitzi Dyer",
      "tags": [
        "culpa",
        "tempor",
        "magna"
      ],
      "formats": {
        "square_250": "http://images.clubjudge.com.s3.amazonaws.com/tmp/photo-square-15.jpg",
        "rectangle_650x280": "http://images.clubjudge.com.s3.amazonaws.com/tmp/photo-cover-15.jpg",
        "scaled_photo": "http://images.clubjudge.com.s3.amazonaws.com/tmp/photo-pic-15.jpg"
      },
      "date": "2014-08-13T04:36:50",
      "guid": "f3d79f87-8711-4dfb-b845-04eb1c3b0d2f"
    },
    {
      "credits": "Luisa Mclean",
      "tags": [
        "amet",
        "consectetur",
        "proident"
      ],
      "formats": {
        "square_250": "http://images.clubjudge.com.s3.amazonaws.com/tmp/photo-square-16.jpg",
        "rectangle_650x280": "http://images.clubjudge.com.s3.amazonaws.com/tmp/photo-cover-16.jpg",
        "scaled_photo": "http://images.clubjudge.com.s3.amazonaws.com/tmp/photo-pic-16.jpg"
      },
      "date": "2014-11-10T05:43:12",
      "guid": "e36d72da-5219-4639-8fd4-e4190ccf2054"
    },
    {
      "credits": "Cara Velasquez",
      "tags": [
        "labore",
        "cillum",
        "exercitation"
      ],
      "formats": {
        "square_250": "http://images.clubjudge.com.s3.amazonaws.com/tmp/photo-square-17.jpg",
        "rectangle_650x280": "http://images.clubjudge.com.s3.amazonaws.com/tmp/photo-cover-17.jpg",
        "scaled_photo": "http://images.clubjudge.com.s3.amazonaws.com/tmp/photo-pic-17.jpg"
      },
      "date": "2014-07-22T03:20:00",
      "guid": "bb10e42d-c4a7-43a2-becf-49806dbd5da3"
    },
    {
      "credits": "Rosella Duran",
      "tags": [
        "veniam",
        "ut",
        "cillum"
      ],
      "formats": {
        "square_250": "http://images.clubjudge.com.s3.amazonaws.com/tmp/photo-square-18.jpg",
        "rectangle_650x280": "http://images.clubjudge.com.s3.amazonaws.com/tmp/photo-cover-18.jpg",
        "scaled_photo": "http://images.clubjudge.com.s3.amazonaws.com/tmp/photo-pic-18.jpg"
      },
      "date": "2014-03-28T03:13:32",
      "guid": "10cc9e1b-cbce-417e-980d-559828133bcb"
    },
    {
      "credits": "David Hammond",
      "tags": [
        "do",
        "commodo",
        "commodo"
      ],
      "formats": {
        "square_250": "http://images.clubjudge.com.s3.amazonaws.com/tmp/photo-square-19.jpg",
        "rectangle_650x280": "http://images.clubjudge.com.s3.amazonaws.com/tmp/photo-cover-19.jpg",
        "scaled_photo": "http://images.clubjudge.com.s3.amazonaws.com/tmp/photo-pic-19.jpg"
      },
      "date": "2014-12-11T20:48:06",
      "guid": "226948a6-45d3-4451-99f8-5329df3613c7"
    },
    {
      "credits": "Beach Nash",
      "tags": [
        "adipisicing",
        "esse",
        "veniam"
      ],
      "formats": {
        "square_250": "http://images.clubjudge.com.s3.amazonaws.com/tmp/photo-square-20.jpg",
        "rectangle_650x280": "http://images.clubjudge.com.s3.amazonaws.com/tmp/photo-cover-20.jpg",
        "scaled_photo": "http://images.clubjudge.com.s3.amazonaws.com/tmp/photo-pic-20.jpg"
      },
      "date": "2014-12-06T17:59:52",
      "guid": "f762970d-d6df-4685-be0f-faba707caeed"
    }
  ]
}
