{
  "generatedBy": "http://beta.json-generator.com/G1DD9UK",
  "_links": {
    "last": "http://bifrost.staging.clubjudge.com:80/v1/photos?perPage=1&page=1",
    "next": null,
    "self": "http://bifrost.staging.clubjudge.com:80/v1/photos?perPage=1&page=1",
    "previous": null,
    "first": "http://bifrost.staging.clubjudge.com:80/v1/photos?perPage=1&page=1"
  },
  "_pagination": {
    "totalItems": 100,
    "totalPages": 5,
    "perPage": 1,
    "currentPage": 1
  },
  "photos": [
    {
      "tags": [
        "ipsum",
        "nostrud",
        "deserunt"
      ],
      "formats": {
        "square_250": "http://images.clubjudge.com.s3.amazonaws.com/tmp/photo-1.jpg",
        "scaled_photo": "http://images.clubjudge.com.s3.amazonaws.com/tmp/photo-1.jpg"
      },
      "date": "2014-04-29T17:11:59",
      "guid": "e951cd9c-de3a-47c1-a863-63d10be7424d"
    },
    {
      "tags": [
        "aliqua",
        "laborum",
        "id"
      ],
      "formats": {
        "square_250": "http://images.clubjudge.com.s3.amazonaws.com/tmp/photo-2.jpg",
        "scaled_photo": "http://images.clubjudge.com.s3.amazonaws.com/tmp/photo-2.jpg"
      },
      "date": "2014-02-07T02:47:12",
      "guid": "7c856a1c-1e0d-440f-9e19-e2ce7315ea74"
    },
    {
      "tags": [
        "voluptate",
        "aliquip",
        "deserunt"
      ],
      "formats": {
        "square_250": "http://images.clubjudge.com.s3.amazonaws.com/tmp/photo-3.jpg",
        "scaled_photo": "http://images.clubjudge.com.s3.amazonaws.com/tmp/photo-3.jpg"
      },
      "date": "2014-06-03T19:32:11",
      "guid": "fb06a41d-8621-4056-84bb-2f550fde8a7b"
    },
    {
      "tags": [
        "consequat",
        "mollit",
        "dolor"
      ],
      "formats": {
        "square_250": "http://images.clubjudge.com.s3.amazonaws.com/tmp/photo-4.jpg",
        "scaled_photo": "http://images.clubjudge.com.s3.amazonaws.com/tmp/photo-4.jpg"
      },
      "date": "2014-07-30T00:06:20",
      "guid": "4fa0dae6-44a9-4251-9f52-bf946e5b541d"
    },
    {
      "tags": [
        "quis",
        "adipisicing",
        "officia"
      ],
      "formats": {
        "square_250": "http://images.clubjudge.com.s3.amazonaws.com/tmp/photo-5.jpg",
        "scaled_photo": "http://images.clubjudge.com.s3.amazonaws.com/tmp/photo-5.jpg"
      },
      "date": "2014-03-25T08:09:10",
      "guid": "2fa4ea58-d51f-4bad-9464-226edfe3d47d"
    },
    {
      "tags": [
        "eu",
        "commodo",
        "est"
      ],
      "formats": {
        "square_250": "http://images.clubjudge.com.s3.amazonaws.com/tmp/photo-6.jpg",
        "scaled_photo": "http://images.clubjudge.com.s3.amazonaws.com/tmp/photo-6.jpg"
      },
      "date": "2014-02-14T02:19:27",
      "guid": "9a71b162-4073-474e-8470-54be615f1eff"
    },
    {
      "tags": [
        "consequat",
        "pariatur",
        "aliqua"
      ],
      "formats": {
        "square_250": "http://images.clubjudge.com.s3.amazonaws.com/tmp/photo-7.jpg",
        "scaled_photo": "http://images.clubjudge.com.s3.amazonaws.com/tmp/photo-7.jpg"
      },
      "date": "2014-04-13T21:10:16",
      "guid": "b175edea-2142-47b8-a79e-6eb9887579ec"
    },
    {
      "tags": [
        "consectetur",
        "eu",
        "irure"
      ],
      "formats": {
        "square_250": "http://images.clubjudge.com.s3.amazonaws.com/tmp/photo-8.jpg",
        "scaled_photo": "http://images.clubjudge.com.s3.amazonaws.com/tmp/photo-8.jpg"
      },
      "date": "2014-11-13T19:34:56",
      "guid": "a391a9dd-e164-4b4a-afc9-87cb565c6e6a"
    },
    {
      "tags": [
        "sint",
        "sit",
        "aute"
      ],
      "formats": {
        "square_250": "http://images.clubjudge.com.s3.amazonaws.com/tmp/photo-9.jpg",
        "scaled_photo": "http://images.clubjudge.com.s3.amazonaws.com/tmp/photo-9.jpg"
      },
      "date": "2014-03-08T02:14:25",
      "guid": "9c0c6e46-44c0-4902-b928-a0309cec2b3e"
    },
    {
      "tags": [
        "ea",
        "veniam",
        "quis"
      ],
      "formats": {
        "square_250": "http://images.clubjudge.com.s3.amazonaws.com/tmp/photo-10.jpg",
        "scaled_photo": "http://images.clubjudge.com.s3.amazonaws.com/tmp/photo-10.jpg"
      },
      "date": "2014-11-17T13:46:21",
      "guid": "be5c8f68-b987-451d-b98a-4764daae9295"
    },
    {
      "tags": [
        "qui",
        "ullamco",
        "dolore"
      ],
      "formats": {
        "square_250": "http://images.clubjudge.com.s3.amazonaws.com/tmp/photo-11.jpg",
        "scaled_photo": "http://images.clubjudge.com.s3.amazonaws.com/tmp/photo-11.jpg"
      },
      "date": "2014-09-01T08:19:34",
      "guid": "6e3c2ea1-e504-4463-873d-0ca4f3e3b5d1"
    },
    {
      "tags": [
        "est",
        "esse",
        "in"
      ],
      "formats": {
        "square_250": "http://images.clubjudge.com.s3.amazonaws.com/tmp/photo-12.jpg",
        "scaled_photo": "http://images.clubjudge.com.s3.amazonaws.com/tmp/photo-12.jpg"
      },
      "date": "2014-01-06T02:52:59",
      "guid": "5f169c0f-bae3-4f96-a3b8-1e5d472238d6"
    },
    {
      "tags": [
        "commodo",
        "labore",
        "quis"
      ],
      "formats": {
        "square_250": "http://images.clubjudge.com.s3.amazonaws.com/tmp/photo-13.jpg",
        "scaled_photo": "http://images.clubjudge.com.s3.amazonaws.com/tmp/photo-13.jpg"
      },
      "date": "2014-09-06T15:22:31",
      "guid": "579415ee-cbf3-4303-b493-a7edb747a95f"
    },
    {
      "tags": [
        "labore",
        "tempor",
        "excepteur"
      ],
      "formats": {
        "square_250": "http://images.clubjudge.com.s3.amazonaws.com/tmp/photo-14.jpg",
        "scaled_photo": "http://images.clubjudge.com.s3.amazonaws.com/tmp/photo-14.jpg"
      },
      "date": "2014-11-14T14:55:01",
      "guid": "f166cd62-6a11-407e-a168-0f0889ecd32c"
    },
    {
      "tags": [
        "laboris",
        "veniam",
        "veniam"
      ],
      "formats": {
        "square_250": "http://images.clubjudge.com.s3.amazonaws.com/tmp/photo-15.jpg",
        "scaled_photo": "http://images.clubjudge.com.s3.amazonaws.com/tmp/photo-15.jpg"
      },
      "date": "2014-08-12T13:23:53",
      "guid": "429cf664-e230-4e1b-bc87-636b6029af23"
    },
    {
      "tags": [
        "velit",
        "incididunt",
        "non"
      ],
      "formats": {
        "square_250": "http://images.clubjudge.com.s3.amazonaws.com/tmp/photo-16.jpg",
        "scaled_photo": "http://images.clubjudge.com.s3.amazonaws.com/tmp/photo-16.jpg"
      },
      "date": "2014-04-06T13:05:26",
      "guid": "d0ee1270-7016-4558-bdce-70698a7949ab"
    },
    {
      "tags": [
        "proident",
        "in",
        "non"
      ],
      "formats": {
        "square_250": "http://images.clubjudge.com.s3.amazonaws.com/tmp/photo-17.jpg",
        "scaled_photo": "http://images.clubjudge.com.s3.amazonaws.com/tmp/photo-17.jpg"
      },
      "date": "2014-05-15T02:37:38",
      "guid": "760c9b24-b860-4b5e-954b-41f695861c57"
    },
    {
      "tags": [
        "mollit",
        "velit",
        "nulla"
      ],
      "formats": {
        "square_250": "http://images.clubjudge.com.s3.amazonaws.com/tmp/photo-18.jpg",
        "scaled_photo": "http://images.clubjudge.com.s3.amazonaws.com/tmp/photo-18.jpg"
      },
      "date": "2014-02-13T23:27:07",
      "guid": "ed1be432-7485-49c2-8512-49cd8fa14088"
    },
    {
      "tags": [
        "ex",
        "sunt",
        "irure"
      ],
      "formats": {
        "square_250": "http://images.clubjudge.com.s3.amazonaws.com/tmp/photo-19.jpg",
        "scaled_photo": "http://images.clubjudge.com.s3.amazonaws.com/tmp/photo-19.jpg"
      },
      "date": "2014-06-29T20:41:56",
      "guid": "f812caf9-4fea-41a7-8446-c69b13fa2815"
    },
    {
      "tags": [
        "incididunt",
        "mollit",
        "aliquip"
      ],
      "formats": {
        "square_250": "http://images.clubjudge.com.s3.amazonaws.com/tmp/photo-20.jpg",
        "scaled_photo": "http://images.clubjudge.com.s3.amazonaws.com/tmp/photo-20.jpg"
      },
      "date": "2014-04-30T22:26:11",
      "guid": "0c9bd292-82ab-4027-bbd5-ee3115201b31"
    }
  ]
}
